Lab 6
…
Question 1: What specialties do we have?

We can use count() from dplyr to figure out how many different catagories do we have? Are these catagories related? overlapping? evenly distributed?

mt_samples |>
  count(medical_specialty, sort = TRUE)

# A tibble: 40 × 2
   medical_specialty                 n
   <chr>                         <int>
 1 Surgery                        1103
 2 Consult - History and Phy.      516
 3 Cardiovascular / Pulmonary      372
 4 Orthopedic                      355
 5 Radiology                       273
 6 General Medicine                259
 7 Gastroenterology                230
 8 Neurology                       223
 9 SOAP / Chart / Progress Notes   166
10 Obstetrics / Gynecology         160
# ℹ 30 more rows
…
Question 3

Redo visualization but remove stopwords before

Bonus points if you remove numbers as well

# Remove stop words
words_clean <- mt_samples |>
  unnest_tokens(words, transcription, token = "words") |>
  anti_join(stop_words, by = c("words" = "word")) |>
  count(words, sort = TRUE)

print(words_clean)

# A tibble: 23,025 × 2
   words         n
   <chr>     <int>
 1 patient   22065
 2 left      11258
 3 history    9509
 4 2          8864
 5 1          8396
 6 normal     7526
 7 procedure  7463
 8 3          6093
 9 pain       5976
10 4          5318
# ℹ 23,015 more rows
…
# Count occurrences of words before and after the target word
count_before <- before_after |>
  filter(!is.na(word_before)) |>
  count(word_before, sort = TRUE)
count_after <- before_after |>
  filter(!is.na(word_after)) |>
  count(word_after, sort = TRUE)

print(count_before)

# A tibble: 566 × 2
   word_before     n
   <chr>       <int>
 1 medical      1223
 2 family        941
 3 a             939
 4 social        865
 5 surgical      491
 6 no            473
 7 with          163
 8 any           129
 9 brief         125
10 the           107
# ℹ 556 more rows

print(count_after)

# A tibble: 368 × 2
   word_after          n
   <chr>           <int>
 1 of               4537
 2 the               761
 3 she               279
 4 he                227
 5 significant       200
 6 this              200
 7 and               197
 8 1                 181
 9 is                172
10 noncontributory   121
# ℹ 358 more rows

Question 6

Which words are most used in each of the specialties. you can use group_by() and top_n() from dplyr to have the calculations be done within each specialty. Remember to remove stopwords. How about the most 5 used words?

mt_samples |>
  unnest_tokens(words, transcription, token = "words") |>
  anti_join(stop_words, by = c("words" = "word")) |>
  group_by(medical_specialty) |>
  count(words, sort = TRUE) |>
  top_n(5, n)

# A tibble: 209 × 3
# Groups:   medical_specialty [40]
   medical_specialty          words         n
   <chr>                      <chr>     <int>
 1 Surgery                    patient    4855
 2 Surgery                    left       3263
 3 Surgery                    procedure  3243
 4 Consult - History and Phy. patient    3046
 5 Consult - History and Phy. history    2820
 6 Surgery                    0          2094
 7 Surgery                    1          2038
 8 Orthopedic                 patient    1711
 9 Cardiovascular / Pulmonary left       1550
10 Cardiovascular / Pulmonary patient    1516
# ℹ 199 more rows
…
